EESchema Schematic File Version 4
EELAYER 30 0
EELAYER END
$Descr A4 11693 8268
encoding utf-8
Sheet 1 1
Title ""
Date ""
Rev ""
Comp ""
Comment1 ""
Comment2 ""
Comment3 ""
Comment4 ""
$EndDescr
$Comp
L MCU_Microchip_SAMD:ATSAMD11C14A-SS U2
U 1 1 5E0FAF48
P 3650 2500
F 0 "U2" H 3650 3381 50  0000 C CNN
F 1 "ATSAMD11C14A-SS" H 3650 3290 50  0000 C CNN
F 2 "fab:fab-SOIC14" H 3650 1450 50  0001 C CNN
F 3 "http://ww1.microchip.com/downloads/en/DeviceDoc/Atmel-42363-SAM-D11_Datasheet.pdf" H 3650 1800 50  0001 C CNN
	1    3650 2500
	1    0    0    -1  
$EndComp
$Comp
L power:GND #PWR0101
U 1 1 5E0FBA03
P 3650 3650
F 0 "#PWR0101" H 3650 3400 50  0001 C CNN
F 1 "GND" H 3655 3477 50  0000 C CNN
F 2 "" H 3650 3650 50  0001 C CNN
F 3 "" H 3650 3650 50  0001 C CNN
	1    3650 3650
	1    0    0    -1  
$EndComp
Wire Wire Line
	3650 1800 3650 1300
Wire Wire Line
	3650 3200 3650 3500
$Comp
L Connector:USB_A J1
U 1 1 5E0FC0D9
P 1450 2450
F 0 "J1" H 1507 2917 50  0000 C CNN
F 1 "USB_A" H 1507 2826 50  0000 C CNN
F 2 "fabdap:USB_PLUG_TRACES" H 1600 2400 50  0001 C CNN
F 3 " ~" H 1600 2400 50  0001 C CNN
	1    1450 2450
	1    0    0    -1  
$EndComp
$Comp
L power:VBUS #PWR0102
U 1 1 5E0FC8FE
P 2000 1300
F 0 "#PWR0102" H 2000 1150 50  0001 C CNN
F 1 "VBUS" H 2015 1473 50  0000 C CNN
F 2 "" H 2000 1300 50  0001 C CNN
F 3 "" H 2000 1300 50  0001 C CNN
	1    2000 1300
	1    0    0    -1  
$EndComp
Wire Wire Line
	2000 1300 2000 2250
Wire Wire Line
	2000 2250 1750 2250
$Comp
L power:VBUS #PWR0103
U 1 1 5E0FDD82
P 1900 4550
F 0 "#PWR0103" H 1900 4400 50  0001 C CNN
F 1 "VBUS" H 1915 4723 50  0000 C CNN
F 2 "" H 1900 4550 50  0001 C CNN
F 3 "" H 1900 4550 50  0001 C CNN
	1    1900 4550
	1    0    0    -1  
$EndComp
Wire Wire Line
	1900 4550 1900 4750
Wire Wire Line
	1900 4750 2150 4750
$Comp
L power:+3V3 #PWR0104
U 1 1 5E0FED00
P 3200 4550
F 0 "#PWR0104" H 3200 4400 50  0001 C CNN
F 1 "+3V3" H 3215 4723 50  0000 C CNN
F 2 "" H 3200 4550 50  0001 C CNN
F 3 "" H 3200 4550 50  0001 C CNN
	1    3200 4550
	1    0    0    -1  
$EndComp
Wire Wire Line
	3200 4550 3200 4750
Wire Wire Line
	3200 4750 2750 4750
$Comp
L power:GND #PWR0105
U 1 1 5E0FF125
P 2450 5400
F 0 "#PWR0105" H 2450 5150 50  0001 C CNN
F 1 "GND" H 2455 5227 50  0000 C CNN
F 2 "" H 2450 5400 50  0001 C CNN
F 3 "" H 2450 5400 50  0001 C CNN
	1    2450 5400
	1    0    0    -1  
$EndComp
Wire Wire Line
	2450 5400 2450 5250
$Comp
L Device:C C1
U 1 1 5E0FF743
P 3200 5000
F 0 "C1" H 3315 5046 50  0000 L CNN
F 1 "C" H 3315 4955 50  0000 L CNN
F 2 "fab:fab-C1206FAB" H 3238 4850 50  0001 C CNN
F 3 "~" H 3200 5000 50  0001 C CNN
	1    3200 5000
	1    0    0    -1  
$EndComp
Wire Wire Line
	3200 4750 3200 4850
Connection ~ 3200 4750
Wire Wire Line
	3200 5150 3200 5250
Wire Wire Line
	3200 5250 2450 5250
Wire Wire Line
	1750 2450 2000 2450
Wire Wire Line
	2000 2450 2000 3300
Wire Wire Line
	2000 3300 4250 3300
Wire Wire Line
	4250 3300 4250 2800
Wire Wire Line
	4250 2800 4150 2800
Wire Wire Line
	1750 2550 1900 2550
Wire Wire Line
	1900 2550 1900 3400
Wire Wire Line
	1900 3400 4350 3400
Wire Wire Line
	4350 3400 4350 2700
Wire Wire Line
	4350 2700 4150 2700
$Comp
L power:GND #PWR0106
U 1 1 5E10245D
P 1450 3650
F 0 "#PWR0106" H 1450 3400 50  0001 C CNN
F 1 "GND" H 1455 3477 50  0000 C CNN
F 2 "" H 1450 3650 50  0001 C CNN
F 3 "" H 1450 3650 50  0001 C CNN
	1    1450 3650
	1    0    0    -1  
$EndComp
Wire Wire Line
	1450 3650 1450 2850
$Comp
L power:+3V3 #PWR0107
U 1 1 5E103985
P 3650 1300
F 0 "#PWR0107" H 3650 1150 50  0001 C CNN
F 1 "+3V3" H 3665 1473 50  0000 C CNN
F 2 "" H 3650 1300 50  0001 C CNN
F 3 "" H 3650 1300 50  0001 C CNN
	1    3650 1300
	1    0    0    -1  
$EndComp
$Comp
L Connector:TestPoint TP3
U 1 1 5E104011
P 2950 2100
F 0 "TP3" H 3008 2218 50  0000 L CNN
F 1 "nRST" H 3008 2127 50  0000 L CNN
F 2 "TestPoint:TestPoint_Pad_2.5x2.5mm" H 3150 2100 50  0001 C CNN
F 3 "~" H 3150 2100 50  0001 C CNN
	1    2950 2100
	1    0    0    -1  
$EndComp
$Comp
L Connector:TestPoint TP2
U 1 1 5E105C43
P 2600 2100
F 0 "TP2" H 2658 2218 50  0000 L CNN
F 1 "SWCLK" H 2658 2127 50  0000 L CNN
F 2 "TestPoint:TestPoint_Pad_2.5x2.5mm" H 2800 2100 50  0001 C CNN
F 3 "~" H 2800 2100 50  0001 C CNN
	1    2600 2100
	1    0    0    -1  
$EndComp
$Comp
L Connector:TestPoint TP1
U 1 1 5E10665E
P 2250 2100
F 0 "TP1" H 2308 2218 50  0000 L CNN
F 1 "SWDIO" H 2308 2127 50  0000 L CNN
F 2 "TestPoint:TestPoint_Pad_2.5x2.5mm" H 2450 2100 50  0001 C CNN
F 3 "~" H 2450 2100 50  0001 C CNN
	1    2250 2100
	1    0    0    -1  
$EndComp
Wire Wire Line
	2950 2100 2950 2200
Wire Wire Line
	3150 2400 2600 2400
Wire Wire Line
	2600 2400 2600 2100
Wire Wire Line
	2250 2100 2250 2500
Wire Wire Line
	2250 2500 3150 2500
$Comp
L Connector_Generic:Conn_02x05_Odd_Even J2
U 1 1 5E108F9E
P 5450 2400
F 0 "J2" H 5500 2817 50  0000 C CNN
F 1 "target" H 5500 2726 50  0000 C CNN
F 2 "Connector_PinHeader_1.27mm:PinHeader_2x05_P1.27mm_Vertical_SMD" H 5450 2400 50  0001 C CNN
F 3 "~" H 5450 2400 50  0001 C CNN
	1    5450 2400
	1    0    0    -1  
$EndComp
$Comp
L Switch:SW_SPST SW1
U 1 1 5E10AB37
P 4900 1850
F 0 "SW1" V 4854 1948 50  0000 L CNN
F 1 "SW_SPST" V 4945 1948 50  0000 L CNN
F 2 "fabdap:CK_CR_GT12" H 4900 1850 50  0001 C CNN
F 3 "~" H 4900 1850 50  0001 C CNN
	1    4900 1850
	0    -1   -1   0   
$EndComp
Wire Wire Line
	5250 2200 5150 2200
Wire Wire Line
	4900 2200 4900 2050
$Comp
L power:+3V3 #PWR0108
U 1 1 5E10BEE1
P 4900 1300
F 0 "#PWR0108" H 4900 1150 50  0001 C CNN
F 1 "+3V3" H 4915 1473 50  0000 C CNN
F 2 "" H 4900 1300 50  0001 C CNN
F 3 "" H 4900 1300 50  0001 C CNN
	1    4900 1300
	1    0    0    -1  
$EndComp
Wire Wire Line
	4900 1300 4900 1650
$Comp
L power:GND #PWR0109
U 1 1 5E10CAEF
P 4900 3650
F 0 "#PWR0109" H 4900 3400 50  0001 C CNN
F 1 "GND" H 4905 3477 50  0000 C CNN
F 2 "" H 4900 3650 50  0001 C CNN
F 3 "" H 4900 3650 50  0001 C CNN
	1    4900 3650
	1    0    0    -1  
$EndComp
Wire Wire Line
	4900 3650 4900 3500
Wire Wire Line
	4900 2300 5250 2300
Wire Wire Line
	4900 2400 5250 2400
Connection ~ 4900 2400
Wire Wire Line
	4900 2400 4900 2300
Wire Wire Line
	5250 2600 4900 2600
Connection ~ 4900 2600
Wire Wire Line
	4900 2600 4900 2400
Wire Wire Line
	5750 2200 5850 2200
Wire Wire Line
	5850 2200 5850 1600
Wire Wire Line
	5850 1600 4650 1600
Wire Wire Line
	4650 1600 4650 2400
Wire Wire Line
	4650 2400 4150 2400
Wire Wire Line
	3150 2800 2950 2800
Wire Wire Line
	2950 2800 2950 3950
Wire Wire Line
	2950 3950 5850 3950
Wire Wire Line
	5850 3950 5850 2600
Wire Wire Line
	5850 2600 5750 2600
Wire Wire Line
	5950 2300 5950 4050
Wire Wire Line
	5950 4050 2850 4050
Wire Wire Line
	2850 4050 2850 2700
Wire Wire Line
	2850 2700 3150 2700
Wire Wire Line
	5750 2300 5950 2300
$Comp
L Device:R R2
U 1 1 5E11346D
P 5150 2850
F 0 "R2" H 5220 2896 50  0000 L CNN
F 1 "R" H 5220 2805 50  0000 L CNN
F 2 "fab:fab-R1206FAB" V 5080 2850 50  0001 C CNN
F 3 "~" H 5150 2850 50  0001 C CNN
	1    5150 2850
	1    0    0    -1  
$EndComp
Wire Wire Line
	5150 2700 5150 2200
Connection ~ 5150 2200
Wire Wire Line
	5150 2200 4900 2200
$Comp
L Device:LED D2
U 1 1 5E114CEB
P 5150 3250
F 0 "D2" V 5189 3133 50  0000 R CNN
F 1 "LED" V 5098 3133 50  0000 R CNN
F 2 "fab:fab-R1206FAB" H 5150 3250 50  0001 C CNN
F 3 "~" H 5150 3250 50  0001 C CNN
	1    5150 3250
	0    -1   -1   0   
$EndComp
Wire Wire Line
	5150 3100 5150 3000
Wire Wire Line
	5150 3400 5150 3500
Wire Wire Line
	5150 3500 4900 3500
Connection ~ 4900 3500
Wire Wire Line
	4900 3500 4900 2600
$Comp
L Device:R R1
U 1 1 5E117785
P 4500 2750
F 0 "R1" H 4570 2796 50  0000 L CNN
F 1 "R" H 4570 2705 50  0000 L CNN
F 2 "fab:fab-R1206FAB" V 4430 2750 50  0001 C CNN
F 3 "~" H 4500 2750 50  0001 C CNN
	1    4500 2750
	1    0    0    -1  
$EndComp
$Comp
L Device:LED D1
U 1 1 5E117CFC
P 4500 3150
F 0 "D1" V 4539 3033 50  0000 R CNN
F 1 "LED" V 4448 3033 50  0000 R CNN
F 2 "fab:fab-R1206FAB" H 4500 3150 50  0001 C CNN
F 3 "~" H 4500 3150 50  0001 C CNN
	1    4500 3150
	0    -1   -1   0   
$EndComp
Wire Wire Line
	4150 2500 4500 2500
Wire Wire Line
	4500 2500 4500 2600
Wire Wire Line
	4500 2900 4500 3000
Wire Wire Line
	4500 3300 4500 3500
Wire Wire Line
	4500 3500 3650 3500
Connection ~ 3650 3500
Wire Wire Line
	3650 3500 3650 3650
Connection ~ 2450 5250
$Comp
L fab:REGULATORSOT23 IC1
U 1 1 5E13C835
P 2450 4850
F 0 "IC1" H 2450 5204 45  0000 C CNN
F 1 "REGULATORSOT23" H 2450 5120 45  0000 C CNN
F 2 "fab:fab-SOT23" H 2480 5000 20  0001 C CNN
F 3 "" H 2450 4850 50  0001 C CNN
	1    2450 4850
	1    0    0    -1  
$EndComp
Wire Wire Line
	2450 4950 2450 5250
Wire Wire Line
	2950 2200 3150 2200
$EndSCHEMATC
